<?xml version="1.0" encoding="UTF-8" standalone="no"?>
<svg
   xmlns:dc="http://purl.org/dc/elements/1.1/"
   xmlns:cc="http://creativecommons.org/ns#"
   xmlns:rdf="http://www.w3.org/1999/02/22-rdf-syntax-ns#"
   xmlns:svg="http://www.w3.org/2000/svg"
   xmlns="http://www.w3.org/2000/svg"
   xmlns:sodipodi="http://sodipodi.sourceforge.net/DTD/sodipodi-0.dtd"
   xmlns:inkscape="http://www.inkscape.org/namespaces/inkscape"
   width="793.700787402"
   height="1122.51968504"
   version="1.1"
   id="svg3773"
   sodipodi:docname="Support2.svg"
   inkscape:version="0.92.4 (5da689c313, 2019-01-14)">
  <metadata
     id="metadata3777">
    <rdf:RDF>
      <cc:Work
         rdf:about="">
        <dc:format>image/svg+xml</dc:format>
        <dc:type
           rdf:resource="http://purl.org/dc/dcmitype/StillImage" />
      </cc:Work>
    </rdf:RDF>
  </metadata>
  <sodipodi:namedview
     pagecolor="#ffffff"
     bordercolor="#666666"
     borderopacity="1"
     objecttolerance="10"
     gridtolerance="10"
     guidetolerance="10"
     inkscape:pageopacity="0"
     inkscape:pageshadow="2"
     inkscape:window-width="1920"
     inkscape:window-height="1013"
     id="namedview3775"
     showgrid="false"
     inkscape:zoom="1.0330823"
     inkscape:cx="216.40758"
     inkscape:cy="731.38362"
     inkscape:window-x="-9"
     inkscape:window-y="-9"
     inkscape:window-maximized="1"
     inkscape:current-layer="g3771" />
  <desc
     id="desc3713">D:\Users\jason\Bureau\azertyu.dxf - scale = 1.000000, origin = (0.000000, 0.000000), method = manual</desc>
  <defs
     id="defs3727">
    <marker
       id="DistanceX"
       orient="auto"
       refX="0.0"
       refY="0.0"
       style="overflow:visible">
      <path
         d="M 3,-3 L -3,3 M 0,-5 L  0,5"
         style="stroke:#000000; stroke-width:0.5"
         id="path3715" />
    </marker>
    <pattern
       height="8"
       id="Hatch"
       patternUnits="userSpaceOnUse"
       width="8"
       x="0"
       y="0">
      <path
         d="M8 4 l-4,4"
         linecap="square"
         stroke="#000000"
         stroke-width="0.25"
         id="path3718" />
      <path
         d="M6 2 l-4,4"
         linecap="square"
         stroke="#000000"
         stroke-width="0.25"
         id="path3720" />
      <path
         d="M4 0 l-4,4"
         linecap="square"
         stroke="#000000"
         stroke-width="0.25"
         id="path3722" />
    </pattern>
    <symbol
       id="*MODEL_SPACE" />
    <symbol
       id="*PAPER_SPACE" />
  </defs>
  <g
     inkscape:groupmode="layer"
     inkscape:label="0"
     id="g3771">
    <g
       id="g3889"
       transform="translate(-9.14585,-442.67088)"
       style="stroke:#ff0000;stroke-opacity:1;stroke-width:0.37795276;stroke-miterlimit:4;stroke-dasharray:none">
      <path
         inkscape:connector-curvature="0"
         id="path3731"
         d="M 261.20038,886.89306 H 221.69071"
         style="fill:none;stroke:#ff0000;stroke-width:0.37795276;stroke-opacity:1;stroke-miterlimit:4;stroke-dasharray:none" />
      <path
         inkscape:connector-curvature="0"
         id="path3733"
         d="M 9.5686347,980.18361 V 1103.7104"
         style="fill:none;stroke:#ff0000;stroke-width:0.37795276;stroke-opacity:1;stroke-miterlimit:4;stroke-dasharray:none" />
      <path
         inkscape:connector-curvature="0"
         id="path3741"
         d="M 9.0543968,980.0248 H 53.781453"
         style="fill:none;stroke:#ff0000;stroke-width:0.37795276;stroke-opacity:1;stroke-miterlimit:4;stroke-dasharray:none" />
      <path
         id="path3743"
         d="m 221.69071,886.89306 v 28.44405"
         style="fill:none;stroke:#ff0000;stroke-opacity:1;stroke-width:0.37795276;stroke-miterlimit:4;stroke-dasharray:none"
         inkscape:connector-curvature="0" />
      <path
         inkscape:connector-curvature="0"
         id="path3745"
         d="M 221.69071,915.33711 H 52.643618"
         style="fill:none;stroke:#ff0000;stroke-width:0.37795276;stroke-opacity:1;stroke-miterlimit:4;stroke-dasharray:none" />
      <path
         inkscape:connector-curvature="0"
         id="path3747"
         d="M 53.074827,979.98402 V 914.99883"
         style="fill:none;stroke:#ff0000;stroke-width:0.37795276;stroke-opacity:1;stroke-miterlimit:4;stroke-dasharray:none" />
      <path
         inkscape:connector-curvature="0"
         id="path3757"
         d="M 9.2011202,1103.9129 300.24601,1026.3999"
         style="fill:none;stroke:#ff0000;stroke-width:0.37795276;stroke-opacity:1;stroke-miterlimit:4;stroke-dasharray:none" />
      <path
         sodipodi:nodetypes="cc"
         inkscape:connector-curvature="0"
         id="path3879"
         d="m 261.20038,886.89306 c -15.11061,57.88654 -0.0343,103.55456 39.04563,139.50684"
         style="fill:none;stroke:#ff0000;stroke-width:0.37795276;stroke-linecap:butt;stroke-linejoin:miter;stroke-opacity:1;stroke-miterlimit:4;stroke-dasharray:none" />
    </g>
    <g
       transform="rotate(-180,150.15064,843.82096)"
       id="g3889-1"
       style="stroke:#ff0000;stroke-opacity:1;stroke-width:0.37795276;stroke-miterlimit:4;stroke-dasharray:none">
      <path
         inkscape:connector-curvature="0"
         id="path3731-9"
         d="M 261.20038,886.89306 H 221.69071"
         style="fill:none;stroke:#ff0000;stroke-width:0.37795276;stroke-opacity:1;stroke-miterlimit:4;stroke-dasharray:none" />
      <path
         inkscape:connector-curvature="0"
         id="path3733-7"
         d="M 9.5686347,980.18361 V 1103.7104"
         style="fill:none;stroke:#ff0000;stroke-width:0.37795276;stroke-opacity:1;stroke-miterlimit:4;stroke-dasharray:none" />
      <path
         inkscape:connector-curvature="0"
         id="path3741-4"
         d="M 9.0543968,980.0248 H 53.781453"
         style="fill:none;stroke:#ff0000;stroke-width:0.37795276;stroke-opacity:1;stroke-miterlimit:4;stroke-dasharray:none" />
      <path
         inkscape:connector-curvature="0"
         id="path3743-4"
         d="m 221.69071,886.89306 v 28.44405"
         style="fill:none;stroke:#ff0000;stroke-opacity:1;stroke-width:0.37795276;stroke-miterlimit:4;stroke-dasharray:none" />
      <path
         inkscape:connector-curvature="0"
         id="path3745-6"
         d="M 221.69071,915.33711 H 52.643618"
         style="fill:none;stroke:#ff0000;stroke-width:0.37795276;stroke-opacity:1;stroke-miterlimit:4;stroke-dasharray:none" />
      <path
         inkscape:connector-curvature="0"
         id="path3747-7"
         d="M 53.074827,979.98402 V 914.99883"
         style="fill:none;stroke:#ff0000;stroke-width:0.37795276;stroke-opacity:1;stroke-miterlimit:4;stroke-dasharray:none" />
      <path
         inkscape:connector-curvature="0"
         id="path3757-5"
         d="M 9.2011202,1103.9129 300.24601,1026.3999"
         style="fill:none;stroke:#ff0000;stroke-width:0.37795276;stroke-opacity:1;stroke-miterlimit:4;stroke-dasharray:none" />
      <path
         sodipodi:nodetypes="cc"
         inkscape:connector-curvature="0"
         id="path3879-2"
         d="m 261.20038,886.89306 c -15.11061,57.88654 -0.0343,103.55456 39.04563,139.50684"
         style="fill:none;stroke:#ff0000;stroke-width:0.37795276;stroke-linecap:butt;stroke-linejoin:miter;stroke-opacity:1;stroke-miterlimit:4;stroke-dasharray:none" />
    </g>
    <g
       id="g3889-8"
       transform="translate(282.42094,-460.23251)"
       style="stroke:#ff0000;stroke-width:0.37795276;stroke-miterlimit:4;stroke-dasharray:none;stroke-opacity:1">
      <path
         inkscape:connector-curvature="0"
         id="path3731-4"
         d="M 261.20038,886.89306 H 221.69071"
         style="fill:none;stroke:#ff0000;stroke-width:0.37795276;stroke-miterlimit:4;stroke-dasharray:none;stroke-opacity:1" />
      <path
         inkscape:connector-curvature="0"
         id="path3733-9"
         d="M 9.5686347,980.18361 V 1103.7104"
         style="fill:none;stroke:#ff0000;stroke-width:0.37795276;stroke-miterlimit:4;stroke-dasharray:none;stroke-opacity:1" />
      <path
         inkscape:connector-curvature="0"
         id="path3741-0"
         d="M 9.0543968,980.0248 H 53.781453"
         style="fill:none;stroke:#ff0000;stroke-width:0.37795276;stroke-miterlimit:4;stroke-dasharray:none;stroke-opacity:1" />
      <path
         id="path3743-1"
         d="m 221.69071,886.89306 v 28.44405"
         style="fill:none;stroke:#ff0000;stroke-width:0.37795276;stroke-miterlimit:4;stroke-dasharray:none;stroke-opacity:1"
         inkscape:connector-curvature="0" />
      <path
         inkscape:connector-curvature="0"
         id="path3745-0"
         d="M 221.69071,915.33711 H 52.643618"
         style="fill:none;stroke:#ff0000;stroke-width:0.37795276;stroke-miterlimit:4;stroke-dasharray:none;stroke-opacity:1" />
      <path
         inkscape:connector-curvature="0"
         id="path3747-3"
         d="M 53.074827,979.98402 V 914.99883"
         style="fill:none;stroke:#ff0000;stroke-width:0.37795276;stroke-miterlimit:4;stroke-dasharray:none;stroke-opacity:1" />
      <path
         inkscape:connector-curvature="0"
         id="path3757-7"
         d="M 9.2011202,1103.9129 300.24601,1026.3999"
         style="fill:none;stroke:#ff0000;stroke-width:0.37795276;stroke-miterlimit:4;stroke-dasharray:none;stroke-opacity:1" />
      <path
         sodipodi:nodetypes="cc"
         inkscape:connector-curvature="0"
         id="path3879-6"
         d="m 261.20038,886.89306 c -15.11061,57.88654 -0.0343,103.55456 39.04563,139.50684"
         style="fill:none;stroke:#ff0000;stroke-width:0.37795276;stroke-linecap:butt;stroke-linejoin:miter;stroke-miterlimit:4;stroke-dasharray:none;stroke-opacity:1" />
    </g>
    <g
       transform="rotate(-180,295.93405,835.04016)"
       id="g3889-1-1"
       style="stroke:#ff0000;stroke-width:0.37795276;stroke-miterlimit:4;stroke-dasharray:none;stroke-opacity:1">
      <path
         inkscape:connector-curvature="0"
         id="path3731-9-0"
         d="M 261.20038,886.89306 H 221.69071"
         style="fill:none;stroke:#ff0000;stroke-width:0.37795276;stroke-miterlimit:4;stroke-dasharray:none;stroke-opacity:1" />
      <path
         inkscape:connector-curvature="0"
         id="path3733-7-6"
         d="M 9.5686347,980.18361 V 1103.7104"
         style="fill:none;stroke:#ff0000;stroke-width:0.37795276;stroke-miterlimit:4;stroke-dasharray:none;stroke-opacity:1" />
      <path
         inkscape:connector-curvature="0"
         id="path3741-4-8"
         d="M 9.0543968,980.0248 H 53.781453"
         style="fill:none;stroke:#ff0000;stroke-width:0.37795276;stroke-miterlimit:4;stroke-dasharray:none;stroke-opacity:1" />
      <path
         inkscape:connector-curvature="0"
         id="path3743-4-3"
         d="m 221.69071,886.89306 v 28.44405"
         style="fill:none;stroke:#ff0000;stroke-width:0.37795276;stroke-miterlimit:4;stroke-dasharray:none;stroke-opacity:1" />
      <path
         inkscape:connector-curvature="0"
         id="path3745-6-5"
         d="M 221.69071,915.33711 H 52.643618"
         style="fill:none;stroke:#ff0000;stroke-width:0.37795276;stroke-miterlimit:4;stroke-dasharray:none;stroke-opacity:1" />
      <path
         inkscape:connector-curvature="0"
         id="path3747-7-2"
         d="M 53.074827,979.98402 V 914.99883"
         style="fill:none;stroke:#ff0000;stroke-width:0.37795276;stroke-miterlimit:4;stroke-dasharray:none;stroke-opacity:1" />
      <path
         inkscape:connector-curvature="0"
         id="path3757-5-7"
         d="M 9.2011202,1103.9129 300.24601,1026.3999"
         style="fill:none;stroke:#ff0000;stroke-width:0.37795276;stroke-miterlimit:4;stroke-dasharray:none;stroke-opacity:1" />
      <path
         sodipodi:nodetypes="cc"
         inkscape:connector-curvature="0"
         id="path3879-2-3"
         d="m 261.20038,886.89306 c -15.11061,57.88654 -0.0343,103.55456 39.04563,139.50684"
         style="fill:none;stroke:#ff0000;stroke-width:0.37795276;stroke-linecap:butt;stroke-linejoin:miter;stroke-miterlimit:4;stroke-dasharray:none;stroke-opacity:1" />
    </g>
    <g
       id="g3889-8-6"
       transform="rotate(90,621.2883,1027.8625)"
       style="stroke:#ff0000;stroke-width:0.37795276;stroke-miterlimit:4;stroke-dasharray:none;stroke-opacity:1">
      <path
         inkscape:connector-curvature="0"
         id="path3731-4-6"
         d="M 261.20038,886.89306 H 221.69071"
         style="fill:none;stroke:#ff0000;stroke-width:0.37795276;stroke-miterlimit:4;stroke-dasharray:none;stroke-opacity:1" />
      <path
         inkscape:connector-curvature="0"
         id="path3733-9-1"
         d="M 9.5686347,980.18361 V 1103.7104"
         style="fill:none;stroke:#ff0000;stroke-width:0.37795276;stroke-miterlimit:4;stroke-dasharray:none;stroke-opacity:1" />
      <path
         inkscape:connector-curvature="0"
         id="path3741-0-7"
         d="M 9.0543968,980.0248 H 53.781453"
         style="fill:none;stroke:#ff0000;stroke-width:0.37795276;stroke-miterlimit:4;stroke-dasharray:none;stroke-opacity:1" />
      <path
         id="path3743-1-6"
         d="m 221.69071,886.89306 v 28.44405"
         style="fill:none;stroke:#ff0000;stroke-width:0.37795276;stroke-miterlimit:4;stroke-dasharray:none;stroke-opacity:1"
         inkscape:connector-curvature="0" />
      <path
         inkscape:connector-curvature="0"
         id="path3745-0-6"
         d="M 221.69071,915.33711 H 52.643618"
         style="fill:none;stroke:#ff0000;stroke-width:0.37795276;stroke-miterlimit:4;stroke-dasharray:none;stroke-opacity:1" />
      <path
         inkscape:connector-curvature="0"
         id="path3747-3-7"
         d="M 53.074827,979.98402 V 914.99883"
         style="fill:none;stroke:#ff0000;stroke-width:0.37795276;stroke-miterlimit:4;stroke-dasharray:none;stroke-opacity:1" />
      <path
         inkscape:connector-curvature="0"
         id="path3757-7-0"
         d="M 9.2011202,1103.9129 300.24601,1026.3999"
         style="fill:none;stroke:#ff0000;stroke-width:0.37795276;stroke-miterlimit:4;stroke-dasharray:none;stroke-opacity:1" />
      <path
         sodipodi:nodetypes="cc"
         inkscape:connector-curvature="0"
         id="path3879-6-1"
         d="m 261.20038,886.89306 c -15.11061,57.88654 -0.0343,103.55456 39.04563,139.50684"
         style="fill:none;stroke:#ff0000;stroke-width:0.37795276;stroke-linecap:butt;stroke-linejoin:miter;stroke-miterlimit:4;stroke-dasharray:none;stroke-opacity:1" />
    </g>
    <g
       id="g3889-8-6-1"
       transform="translate(413.96879,-659.69073)"
       style="stroke:#ff0000;stroke-opacity:1;stroke-width:0.37795276;stroke-miterlimit:4;stroke-dasharray:none">
      <path
         inkscape:connector-curvature="0"
         id="path3731-4-6-7"
         d="M 261.20038,886.89306 H 221.69071"
         style="fill:none;stroke:#ff0000;stroke-width:0.37795276;stroke-opacity:1;stroke-miterlimit:4;stroke-dasharray:none" />
      <path
         inkscape:connector-curvature="0"
         id="path3733-9-1-0"
         d="M 9.5686347,980.18361 V 1103.7104"
         style="fill:none;stroke:#ff0000;stroke-width:0.37795276;stroke-opacity:1;stroke-miterlimit:4;stroke-dasharray:none" />
      <path
         inkscape:connector-curvature="0"
         id="path3741-0-7-5"
         d="M 9.0543968,980.0248 H 53.781453"
         style="fill:none;stroke:#ff0000;stroke-width:0.37795276;stroke-opacity:1;stroke-miterlimit:4;stroke-dasharray:none" />
      <path
         id="path3743-1-6-3"
         d="m 221.69071,886.89306 v 28.44405"
         style="fill:none;stroke:#ff0000;stroke-opacity:1;stroke-width:0.37795276;stroke-miterlimit:4;stroke-dasharray:none"
         inkscape:connector-curvature="0" />
      <path
         inkscape:connector-curvature="0"
         id="path3745-0-6-7"
         d="M 221.69071,915.33711 H 52.643618"
         style="fill:none;stroke:#ff0000;stroke-width:0.37795276;stroke-opacity:1;stroke-miterlimit:4;stroke-dasharray:none" />
      <path
         inkscape:connector-curvature="0"
         id="path3747-3-7-6"
         d="M 53.074827,979.98402 V 914.99883"
         style="fill:none;stroke:#ff0000;stroke-width:0.37795276;stroke-opacity:1;stroke-miterlimit:4;stroke-dasharray:none" />
      <path
         inkscape:connector-curvature="0"
         id="path3757-7-0-1"
         d="M 9.2011202,1103.9129 300.24601,1026.3999"
         style="fill:none;stroke:#ff0000;stroke-width:0.37795276;stroke-opacity:1;stroke-miterlimit:4;stroke-dasharray:none" />
      <path
         sodipodi:nodetypes="cc"
         inkscape:connector-curvature="0"
         id="path3879-6-1-3"
         d="m 261.20038,886.89306 c -15.11061,57.88654 -0.0343,103.55456 39.04563,139.50684"
         style="fill:none;stroke:#ff0000;stroke-width:0.37795276;stroke-linecap:butt;stroke-linejoin:miter;stroke-opacity:1;stroke-miterlimit:4;stroke-dasharray:none" />
    </g>
    <path
       inkscape:connector-curvature="0"
       d="M 396.66692,2.2972844 H 1.9198134 V 217.45058 H 396.66692 V 2.2972844 H 298.43943 V 49.482584 h 98.22749 z"
       style="fill:none;stroke:#ff0000;stroke-opacity:1;stroke-width:0.37795276;stroke-miterlimit:4;stroke-dasharray:none"
       id="path164" />
    <path
       inkscape:connector-curvature="0"
       d="M 791.41403,2.2972844 H 396.66692 V 217.45058 H 791.41403 V 2.2972844 H 693.18654 V 49.482585 h 98.22749 z"
       style="fill:none;stroke:#ff0000;stroke-opacity:1;stroke-width:0.37795276;stroke-miterlimit:4;stroke-dasharray:none"
       id="path164-2" />
    <path
       inkscape:connector-curvature="0"
       d="M 1.9198134,217.45058 H 212.54486 v 226.7716 H 1.9198134 Z"
       style="fill:none;stroke:#ff0000;stroke-opacity:1;stroke-width:0.37795276;stroke-miterlimit:4;stroke-dasharray:none"
       id="path223" />
    <path
       inkscape:connector-curvature="0"
       d="m 22.73741,444.22218 189.80745,-54.2307"
       style="fill:none;stroke:#ff0000;stroke-opacity:1;stroke-width:0.37795276;stroke-miterlimit:4;stroke-dasharray:none"
       id="path225" />
    <path
       inkscape:connector-curvature="0"
       d="M 10.424319,439.87868 203.9892,384.57448"
       style="fill:none;stroke:#ff0000;stroke-opacity:1;stroke-width:0.37795276;stroke-miterlimit:4;stroke-dasharray:none"
       id="path229" />
    <path
       inkscape:connector-curvature="0"
       d="M 200.87425,373.67218 7.3093714,428.97638"
       style="fill:none;stroke:#ff0000;stroke-opacity:1;stroke-width:0.37795276;stroke-miterlimit:4;stroke-dasharray:none"
       id="path231" />
    <path
       inkscape:connector-curvature="0"
       d="m 203.9892,384.57448 -3.11495,-10.9023"
       style="fill:none;stroke:#ff0000;stroke-opacity:1;stroke-width:0.37795276;stroke-miterlimit:4;stroke-dasharray:none"
       id="path233" />
    <path
       inkscape:connector-curvature="0"
       d="M 10.424319,439.87868 7.3093714,428.97638"
       style="fill:none;stroke:#ff0000;stroke-opacity:1;stroke-width:0.37795276;stroke-miterlimit:4;stroke-dasharray:none"
       id="path235" />
    <path
       inkscape:connector-curvature="0"
       d="M 65.976289,217.45058 H 1.9198134 v 60.8448 H 65.976289 Z"
       style="fill:none;stroke:#ff0000;stroke-opacity:1;stroke-width:0.37795276;stroke-miterlimit:4;stroke-dasharray:none"
       id="path245" />
    <path
       inkscape:connector-curvature="0"
       d="M 212.54486,217.45058 H 423.16991 V 444.22217 H 212.54486 Z"
       style="fill:none;stroke:#ff0000;stroke-opacity:1;stroke-width:0.37795276;stroke-miterlimit:4;stroke-dasharray:none"
       id="path223-2" />
    <path
       inkscape:connector-curvature="0"
       d="m 224.80679,438.80517 189.80746,-54.2307"
       style="fill:none;stroke:#ff0000;stroke-opacity:1;stroke-width:0.37795276;stroke-miterlimit:4;stroke-dasharray:none"
       id="path225-1" />
    <path
       inkscape:connector-curvature="0"
       d="m 221.04936,439.87867 193.56489,-55.3042"
       style="fill:none;stroke:#ff0000;stroke-opacity:1;stroke-width:0.37795276;stroke-miterlimit:4;stroke-dasharray:none"
       id="path229-7" />
    <path
       inkscape:connector-curvature="0"
       d="m 411.4993,373.67217 -193.56489,55.3042"
       style="fill:none;stroke:#ff0000;stroke-opacity:1;stroke-width:0.37795276;stroke-miterlimit:4;stroke-dasharray:none"
       id="path231-8" />
    <path
       inkscape:connector-curvature="0"
       d="m 414.61425,384.57447 -3.11495,-10.9023"
       style="fill:none;stroke:#ff0000;stroke-opacity:1;stroke-width:0.37795276;stroke-miterlimit:4;stroke-dasharray:none"
       id="path233-0" />
    <path
       inkscape:connector-curvature="0"
       d="m 221.04936,439.87867 -3.11495,-10.9023"
       style="fill:none;stroke:#ff0000;stroke-opacity:1;stroke-width:0.37795276;stroke-miterlimit:4;stroke-dasharray:none"
       id="path235-1" />
    <path
       inkscape:connector-curvature="0"
       d="m 276.60133,217.45058 h -64.05647 v 60.8448 h 64.05647 z"
       style="fill:none;stroke:#ff0000;stroke-opacity:1;stroke-width:0.37795276;stroke-miterlimit:4;stroke-dasharray:none"
       id="path245-6" />
    <path
       inkscape:connector-curvature="0"
       d="m 233.46024,443.33196 189.80745,-54.2307"
       style="fill:none;stroke:#ff0000;stroke-opacity:1;stroke-width:0.37795276;stroke-miterlimit:4;stroke-dasharray:none"
       id="path225-9" />
  </g>
</svg>
